main.c:151:6:HAL_SYSTICK_Callback	8	static
main.c:191:5:main	56	static,ignoring_inline_asm
main.c:472:6:SystemClock_Config	144	static
main.c:526:13:MX_COMP1_Init	8	static
main.c:561:13:MX_I2C2_Init	8	static
main.c:610:13:MX_TIM2_Init	48	static
main.c:663:13:MX_TIM14_Init	40	static
main.c:709:13:MX_USART1_UART_Init	8	static
main.c:757:13:MX_GPIO_Init	48	static
main.c:794:6:HAL_GPIO_EXTI_Rising_Callback	16	static
main.c:810:6:HAL_GPIO_EXTI_Falling_Callback	16	static
main.c:938:6:Error_Handler	8	static
